\babel@toc {slovak}{}
\contentsline {figure}{\numberline {1}{\ignorespaces Príklad uloženia zostavy VlakAkce pôvodného generátoru na~disku}}{13}{figure.1}%
\contentsline {figure}{\numberline {2}{\ignorespaces Príklad exportovaného reportu VlakAkce v~pôvodnom riešení}}{13}{figure.2}%
\contentsline {figure}{\numberline {3}{\ignorespaces UML, 1. diagram prípadov použitia}}{20}{figure.3}%
\contentsline {figure}{\numberline {4}{\ignorespaces UML, 2. diagram prípadov použitia}}{20}{figure.4}%
\contentsline {figure}{\numberline {5}{\ignorespaces UML, 3. diagram prípadov použitia}}{22}{figure.5}%
\contentsline {figure}{\numberline {6}{\ignorespaces UML, 1. diagram tried}}{23}{figure.6}%
\contentsline {figure}{\numberline {7}{\ignorespaces UML, 2. diagram tried}}{23}{figure.7}%
\contentsline {figure}{\numberline {8}{\ignorespaces UML, 3. diagram tried}}{24}{figure.8}%
\contentsline {figure}{\numberline {9}{\ignorespaces Schéma databázy Generator\_of\_reports}}{25}{figure.9}%
\contentsline {figure}{\numberline {10}{\ignorespaces MVC pattern}}{27}{figure.10}%
\contentsline {figure}{\numberline {11}{\ignorespaces ASP.NET MVC Repository pattern so~servisnou vrstvou}}{28}{figure.11}%
\contentsline {figure}{\numberline {12}{\ignorespaces Zobrazenie časti pripojeného modelu LWP\_Kartoteka\_Vyvoj}}{35}{figure.12}%
\contentsline {figure}{\numberline {13}{\ignorespaces Tabuľka nastavovania oprávnení pre~report alebo dopyt}}{45}{figure.13}%
\contentsline {figure}{\numberline {14}{\ignorespaces Pohľad na~užívateľský profil}}{50}{figure.14}%
\contentsline {figure}{\numberline {15}{\ignorespaces Pohľad na~vytvorenie zostavy}}{52}{figure.15}%
\contentsline {figure}{\numberline {16}{\ignorespaces Pohľad na~vytvorenie dopytu}}{55}{figure.16}%
\contentsline {figure}{\numberline {17}{\ignorespaces Pohľad na~editáciu dopytu}}{56}{figure.17}%
\contentsline {figure}{\numberline {18}{\ignorespaces Pohľad na~editáciu užívateľa}}{57}{figure.18}%
\babel@toc {slovak}{}
\babel@toc {slovak}{}
\babel@toc {english}{}
\babel@toc {slovak}{}
\contentsline {figure}{\numberline {19}{\ignorespaces Schéma testovacej databázy Restaurant}}{61}{figure.19}%
\contentsline {figure}{\numberline {20}{\ignorespaces Schéma testovacej databázy TrainTimeline}}{62}{figure.20}%
